{
  "extends": "../tslint.json",
  "rules": {
    "directive-selector": [
      true,
      "attribute",
      "app",
      "camelCase"
    ],
    "component-selector": [
      true,
      "element",
      "app",
      "kebab-case"
    ],
    "compilerOptions": {
      "typeRoots": [
        "node_modules/@types"
    ],
    "types": [ "youtube" ]
  }
  }
}
